{
  "info" : {
    "version" : 1,
    "author" : "xcode"
  },
  "colors" : [
    {
      "idiom" : "universal",
      "color" : {
        "color-space" : "srgb",
        "components" : {
          "red" : "35",
          "alpha" : "0.200",
          "blue" : "32",
          "green" : "31"
        }
      }
    }
  ]
}